rtl/mips_cpu_bus_tb.vcd
$date
	Tue Dec  7 01:19:14 2021
$end
$version
	Icarus Verilog
$end
$timescale
	1s
$end
$scope module mips_cpu_bus_tb $end
$var wire 1 ! waitrequest $end
$var wire 32 " register_v0 [31:0] $end
$var wire 32 # memwritedata [31:0] $end
$var wire 1 $ memwrite $end
$var wire 32 % memreaddata [31:0] $end
$var wire 1 & memread $end
$var wire 32 ' mem_address [31:0] $end
$var wire 4 ( byteenable [3:0] $end
$var wire 1 ) active $end
$var reg 1 * clk $end
$var reg 1 + reset $end
$scope module RAMInst $end
$var wire 1 * clk $end
$var wire 32 , writedata [31:0] $end
$var wire 1 $ write $end
$var wire 32 - sim_address [31:0] $end
$var wire 1 & read $end
$var wire 4 . byteenable [3:0] $end
$var wire 32 / address [31:0] $end
$var reg 32 0 readdata [31:0] $end
$var reg 1 ! waitrequest $end
$var integer 32 1 waitcycle [31:0] $end
$scope begin $ivl_for_loop0 $end
$var integer 32 2 i [31:0] $end
$upscope $end
$upscope $end
$scope module cpuBusInst $end
$var wire 1 * clk $end
$var wire 32 3 memreaddata [31:0] $end
$var wire 32 4 memwritedata [31:0] $end
$var wire 1 + reset $end
$var wire 1 ! waitrequest $end
$var wire 32 5 zero_extended_immediate [31:0] $end
$var wire 3 6 tomult [2:0] $end
$var wire 5 7 toalu [4:0] $end
$var wire 1 8 threecycle $end
$var wire 32 9 sign_extended_immediate [31:0] $end
$var wire 5 : shift [4:0] $end
$var wire 1 ; regwrite $end
$var wire 32 < register_v0 [31:0] $end
$var wire 2 = regdst [1:0] $end
$var wire 32 > reg_write_data [31:0] $end
$var wire 5 ? reg_write_address [4:0] $end
$var wire 5 @ reg_source_2 [4:0] $end
$var wire 5 A reg_source_1 [4:0] $end
$var wire 5 B reg_dest [4:0] $end
$var wire 32 C read_reg_2 [31:0] $end
$var wire 32 D read_reg_1 [31:0] $end
$var wire 1 E pcwritecond $end
$var wire 1 F pcwrite $end
$var wire 2 G pcsource [1:0] $end
$var wire 32 H pc_value [31:0] $end
$var wire 32 I pc_address_in [31:0] $end
$var wire 6 J opcode [5:0] $end
$var wire 1 K muldivwrite $end
$var wire 1 $ memwrite $end
$var wire 1 L memtoreg $end
$var wire 1 & memread $end
$var wire 32 M mem_address [31:0] $end
$var wire 1 N jumpconen $end
$var wire 1 O jump $end
$var wire 26 P jmp_address [25:0] $end
$var wire 1 Q ir_write $end
$var wire 1 R iord $end
$var wire 32 S increment_pc [31:0] $end
$var wire 16 T immediate [15:0] $end
$var wire 6 U fncode [5:0] $end
$var wire 1 V condition $end
$var wire 3 W alusrcb [2:0] $end
$var wire 1 X alusrca $end
$var wire 1 Y aluouten $end
$var wire 4 Z aluop [3:0] $end
$var wire 32 [ alu_result [31:0] $end
$var wire 32 \ alu_in_b [31:0] $end
$var wire 32 ] alu_in_a [31:0] $end
$var reg 1 ) active $end
$var reg 32 ^ alu_out [31:0] $end
$var reg 4 _ byteenable [3:0] $end
$var reg 1 ` jumpcondreg $end
$var reg 32 a jumpdestreg [31:0] $end
$var reg 32 b mem_reg_current [31:0] $end
$var reg 32 c read_reg_a_current [31:0] $end
$var reg 32 d read_reg_b_current [31:0] $end
$var reg 3 e state [2:0] $end
$scope module cpu_alu $end
$var wire 32 f a [31:0] $end
$var wire 32 g b [31:0] $end
$var wire 1 * clk $end
$var wire 1 + reset $end
$var wire 1 K write $end
$var wire 5 h shift [4:0] $end
$var wire 3 i mult_op [2:0] $end
$var wire 32 j lo [31:0] $end
$var wire 32 k hi [31:0] $end
$var wire 1 V condition $end
$var wire 5 l alu_func [4:0] $end
$var reg 32 m result [31:0] $end
$scope module alu_mult $end
$var wire 32 n a [31:0] $end
$var wire 32 o b [31:0] $end
$var wire 1 * clk $end
$var wire 1 + reset $end
$var wire 1 K write $end
$var wire 1 p sign_b $end
$var wire 1 q sign_a $end
$var wire 3 r op [2:0] $end
$var reg 64 s div [63:0] $end
$var reg 64 t div_u [63:0] $end
$var reg 32 u hi [31:0] $end
$var reg 32 v lo [31:0] $end
$var reg 32 w mag_a [31:0] $end
$var reg 32 x mag_b [31:0] $end
$var reg 64 y mult [63:0] $end
$var reg 64 z mult_u [63:0] $end
$var reg 1 { sign_out $end
$var reg 32 | signed_a [31:0] $end
$var reg 32 } signed_b [31:0] $end
$var reg 32 ~ unsigned_a [31:0] $end
$var reg 32 !" unsigned_b [31:0] $end
$upscope $end
$upscope $end
$scope module cpu_alu_control $end
$var wire 6 "" funct [5:0] $end
$var wire 4 #" aluOp [3:0] $end
$var reg 5 $" toAlu [4:0] $end
$var reg 3 %" toMult [2:0] $end
$upscope $end
$scope module cpu_control $end
$var wire 32 &" memoryadress [31:0] $end
$var wire 3 '" state [2:0] $end
$var wire 1 ! waitrequest $end
$var wire 5 (" regimm [4:0] $end
$var wire 6 )" opcode [5:0] $end
$var wire 6 *" fncode [5:0] $end
$var reg 4 +" aluop [3:0] $end
$var reg 1 Y aluouten $end
$var reg 1 X alusrca $end
$var reg 3 ," alusrcb [2:0] $end
$var reg 4 -" byteenable [3:0] $end
$var reg 1 ." exec1 $end
$var reg 1 /" exec2 $end
$var reg 1 R iord $end
$var reg 1 Q irwrite $end
$var reg 1 O jump $end
$var reg 1 N jumpconen $end
$var reg 1 & memread $end
$var reg 1 L memtoreg $end
$var reg 1 $ memwrite $end
$var reg 1 K muldivwrite $end
$var reg 2 0" pcsource [1:0] $end
$var reg 1 F pcwrite $end
$var reg 1 E pcwritecond $end
$var reg 2 1" regdst [1:0] $end
$var reg 1 ; regwrite $end
$var reg 1 8 threecycle $end
$upscope $end
$scope module cpu_instruction_register $end
$var wire 1 * clk $end
$var wire 1 Q enable $end
$var wire 32 2" memory_output [31:0] $end
$var wire 3 3" state [2:0] $end
$var wire 5 4" source_2 [4:0] $end
$var wire 5 5" source_1 [4:0] $end
$var wire 5 6" shamt [4:0] $end
$var wire 26 7" jmp_address [25:0] $end
$var wire 16 8" immediate [15:0] $end
$var wire 6 9" funct [5:0] $end
$var wire 5 :" dest [4:0] $end
$var wire 6 ;" control_input [5:0] $end
$var reg 32 <" instruction [31:0] $end
$upscope $end
$scope module cpu_pc $end
$var wire 1 * clk $end
$var wire 1 F pcenable $end
$var wire 32 =" pcin [31:0] $end
$var wire 1 + reset $end
$var reg 32 >" pcout [31:0] $end
$upscope $end
$scope module cpu_register_file $end
$var wire 1 * clk $end
$var wire 32 ?" read_data_1 [31:0] $end
$var wire 32 @" read_data_2 [31:0] $end
$var wire 32 A" read_data_v0 [31:0] $end
$var wire 5 B" read_reg_1 [4:0] $end
$var wire 5 C" read_reg_2 [4:0] $end
$var wire 1 + reset $end
$var wire 32 D" write_data [31:0] $end
$var wire 1 ; write_enable $end
$var wire 5 E" write_reg [4:0] $end
$scope begin $ivl_for_loop1 $end
$var integer 32 F" i [31:0] $end
$upscope $end
$scope begin $ivl_for_loop2 $end
$var integer 32 G" i [31:0] $end
$upscope $end
$upscope $end
$upscope $end
$upscope $end
$enddefinitions $end
#0
$dumpvars
b0 G"
b0 F"
bx E"
bx D"
bx C"
bx B"
bx A"
bx @"
bx ?"
bx >"
bx ="
bx <"
bx ;"
bx :"
bx 9"
bx 8"
bx 7"
bx 6"
bx 5"
bx 4"
b0 3"
b0 2"
b0 1"
b0 0"
0/"
0."
b0 -"
b0 ,"
b0 +"
bx *"
bx )"
bx ("
b0 '"
bx &"
bx %"
b0 $"
b0 #"
bx ""
bx !"
bx ~
bx }
bx |
x{
bx z
bx y
bx x
bx w
bx v
bx u
bx t
bx s
bx r
xq
xp
bx o
bx n
bx m
b0 l
bx k
bx j
bx i
bx h
bx g
bx f
b0 e
bx d
bx c
bx b
bx a
0`
bx _
bx ^
bx ]
bx \
bx [
b0 Z
0Y
0X
b0 W
xV
bx U
bx T
bx S
0R
0Q
bx P
0O
0N
bx M
0L
0K
bx J
bx I
bx H
b0 G
0F
0E
bx D
bx C
bx B
bx A
bx @
bx ?
bx >
b0 =
bx <
0;
bx :
bx 9
08
b0 7
bx 6
b0xxxxxxxxxxxxxxxx 5
bx 4
b0 3
b1000000000000 2
b11 1
b0 0
bx /
bx .
bx -
bx ,
1+
0*
0)
bx (
bx '
0&
b0 %
0$
bx #
bx "
0!
$end
#10
1!
b10111111110000000000000000000100 I
b10111111110000000000000000000100 ="
b10111111110000000000000000000100 S
b10111111110000000000000000000100 >
b10111111110000000000000000000100 D"
1{
b100000001000000000000000000000000 y
b10000000100000000000000000000 s
b1011111111000000000000000000000000 z
b101111111100000000000000000000 t
b100 x
b100 !"
b100 }
0p
0V
b10111111110000000000000000000100 [
b10111111110000000000000000000100 m
b10111111110000000000000000000100 &"
b100 \
b100 g
b100 o
b0 ?
b0 E"
b1000000010000000000000000000000 w
b10111111110000000000000000000000 ~
b10111111110000000000000000000000 |
1q
b1 -
b0 9
b10111111110000000000000000000000 ]
b10111111110000000000000000000000 f
b10111111110000000000000000000000 n
b10111111110000000000000000000000 '
b10111111110000000000000000000000 /
b10111111110000000000000000000000 M
b0 J
b0 )"
b0 ;"
b0 D
b0 ?"
b0 A
b0 5"
b0 B"
b0 C
b0 @"
b0 @
b0 ("
b0 4"
b0 C"
b0 B
b0 :"
b0 5
b0 T
b0 8"
b0 P
b0 7"
b0 U
b0 ""
b0 *"
b0 9"
b0 :
b0 h
b0 6"
1Y
b1 W
b1 ,"
1&
0N
0F
1Q
b0 "
b0 <
b0 A"
b10111111110000000000000000000000 H
b10111111110000000000000000000000 >"
b0 <"
b0 j
b0 v
b0 k
b0 u
1)
b1 e
b1 '"
b1 3"
b0 b
b100000 F"
1*
#11
0+
#20
0*
#30
1N
1F
b10111111110000000000000000000100 ^
b0 #
b0 ,
b0 4
b0 d
b0 c
0!
b100100000000100000000000110010 %
b100100000000100000000000110010 0
b100100000000100000000000110010 3
b100100000000100000000000110010 2"
b1 1
b100000 G"
1*
#40
0*
#50
b10111111110000000000000011001100 I
b10111111110000000000000011001100 ="
b11001000 x
b11001000 !"
b11001000 }
b10111111110000000000000011001100 S
b10 ?
b10 E"
b11001000 \
b11001000 g
b11001000 o
b10111111110000000000000011001100 >
b10111111110000000000000011001100 D"
b11001000110001111111111111110011100000 y
b10100100011110101110000 s
b1001010111001110000000000000001100100000 z
b111101010111000010100011 t
b1000000001111111111111111111100 w
b10111111110000000000000000000100 ~
b10111111110000000000000000000100 |
b10111111110000000000000011001100 [
b10111111110000000000000011001100 m
b10111111110000000000000011001100 &"
b10 -
b110010 9
b10111111110000000000000000000100 ]
b10111111110000000000000000000100 f
b10111111110000000000000000000100 n
b10111111110000000000000000000100 '
b10111111110000000000000000000100 /
b10111111110000000000000000000100 M
b1001 J
b1001 )"
b1001 ;"
b10 @
b10 ("
b10 4"
b10 C"
b110010 5
b110010 T
b110010 8"
b100000000000110010 P
b100000000000110010 7"
b110010 U
b110010 ""
b110010 *"
b110010 9"
b11 W
b11 ,"
0&
0F
0Q
b10111111110000000000000000000100 H
b10111111110000000000000000000100 >"
b100100000000100000000000110010 <"
b10 e
b10 '"
b10 3"
b100100000000100000000000110010 b
b100000 G"
1*
#60
0*
#70
b110010 x
b110010 !"
b110010 }
b110010 I
b110010 ="
b110010 \
b110010 g
b110010 o
b110010 S
b110010 >
b110010 D"
0{
b0 y
b0 s
b0 z
b0 t
b0 w
b0 ~
b0 |
0q
b110010 [
b110010 m
b110010 &"
b0 ]
b0 f
b0 n
b10 W
b10 ,"
1X
18
1;
1."
b10111111110000000000000011001100 ^
b11 e
b11 '"
b11 3"
b100000 G"
1*
#80
0*
#90
0N
1!
b10111111110000000000000000001000 I
b10111111110000000000000000001000 ="
b100 x
b100 !"
b100 }
b10111111110000000000000000001000 S
b100 \
b100 g
b100 o
b10111111110000000000000000001000 >
b10111111110000000000000000001000 D"
1{
b100000000111111111111111111110000 y
b10000000011111111111111111111 s
b1011111111000000000000000000010000 z
b101111111100000000000000000001 t
b1000000001111111111111111111100 w
b10111111110000000000000000000100 ~
b10111111110000000000000000000100 |
1q
b10111111110000000000000000001000 [
b10111111110000000000000000001000 m
b10111111110000000000000000001000 &"
b10111111110000000000000000000100 ]
b10111111110000000000000000000100 f
b10111111110000000000000000000100 n
b1 W
b1 ,"
0X
1&
08
0F
1Q
0;
0."
b1 e
b1 '"
b1 3"
b110010 ^
b110010 C
b110010 @"
b110010 "
b110010 <
b110010 A"
b100000 G"
1*
#100
0*
#110
1N
1F
b10111111110000000000000000001000 ^
b110010 #
b110010 ,
b110010 4
b110010 d
0!
b100100010000100000111111111111 %
b100100010000100000111111111111 0
b100100010000100000111111111111 3
b100100010000100000111111111111 2"
b1 1
b100000 G"
1*
#120
0*
#130
b10111111110000000100000000000100 I
b10111111110000000100000000000100 ="
b11111111111100 x
b11111111111100 !"
b11111111111100 }
b10111111110000000100000000000100 S
b11111111111100 \
b11111111111100 g
b11111111111100 o
b10111111110000000100000000000100 >
b10111111110000000100000000000100 D"
b100000000111011111110111111100000000000100000 y
b10000000100010000 s
b1011111110110100000001000000011111111111100000 z
b101111111100101111 t
b1000000001111111111111111111000 w
b10111111110000000000000000001000 ~
b10111111110000000000000000001000 |
b11 -
b111111111111 9
b10111111110000000100000000000100 [
b10111111110000000100000000000100 m
b10111111110000000100000000000100 &"
b10111111110000000000000000001000 ]
b10111111110000000000000000001000 f
b10111111110000000000000000001000 n
b10111111110000000000000000001000 '
b10111111110000000000000000001000 /
b10111111110000000000000000001000 M
b110010 D
b110010 ?"
b10 A
b10 5"
b10 B"
b1 B
b1 :"
b111111111111 5
b111111111111 T
b111111111111 8"
b10000100000111111111111 P
b10000100000111111111111 7"
b111111 U
b111111 ""
b111111 *"
b111111 9"
b11111 :
b11111 h
b11111 6"
b11 W
b11 ,"
0&
0F
0Q
b10111111110000000000000000001000 H
b10111111110000000000000000001000 >"
b100100010000100000111111111111 <"
b10 e
b10 '"
b10 3"
b100100010000100000111111111111 b
b100000 G"
1*
#140
0*
#150
b111111111111 x
b111111111111 !"
b111111111111 }
b1000000110001 I
b1000000110001 ="
b111111111111 \
b111111111111 g
b111111111111 o
b1000000110001 S
b1000000110001 >
b1000000110001 D"
0{
b110001111111001110 y
b0 s
b110001111111001110 z
b0 t
b110010 w
b110010 ~
b110010 |
0q
b1000000110001 [
b1000000110001 m
b1000000110001 &"
b110010 ]
b110010 f
b110010 n
b10 W
b10 ,"
1X
18
1;
1."
b10111111110000000100000000000100 ^
b110010 c
b11 e
b11 '"
b11 3"
b100000 G"
1*
#160
0*
#170
0N
1!
b10111111110000000000000000001100 I
b10111111110000000000000000001100 ="
b100 x
b100 !"
b100 }
b10111111110000000000000000001100 S
b100 \
b100 g
b100 o
b10111111110000000000000000001100 >
b10111111110000000000000000001100 D"
1{
b100000000111111111111111111100000 y
b10000000011111111111111111110 s
b1011111111000000000000000000100000 z
b101111111100000000000000000010 t
b1000000001111111111111111111000 w
b10111111110000000000000000001000 ~
b10111111110000000000000000001000 |
1q
b10111111110000000000000000001100 [
b10111111110000000000000000001100 m
b10111111110000000000000000001100 &"
b10111111110000000000000000001000 ]
b10111111110000000000000000001000 f
b10111111110000000000000000001000 n
b1 W
b1 ,"
0X
1&
08
0F
1Q
0;
0."
b1 e
b1 '"
b1 3"
b1000000110001 ^
b1000000110001 D
b1000000110001 ?"
b1000000110001 C
b1000000110001 @"
b1000000110001 "
b1000000110001 <
b1000000110001 A"
b100000 G"
1*
#180
0*
#190
1N
1F
b10111111110000000000000000001100 ^
b1000000110001 #
b1000000110001 ,
b1000000110001 4
b1000000110001 d
b1000000110001 c
0!
b1 1
b100000 G"
1*
#200
0*
#210
b10111111110000000100000000001000 I
b10111111110000000100000000001000 ="
b11111111111100 x
b11111111111100 !"
b11111111111100 }
b10111111110000000100000000001000 S
b11111111111100 \
b11111111111100 g
b11111111111100 o
b10111111110000000100000000001000 >
b10111111110000000100000000001000 D"
b100000000111011111110111111010000000000110000 y
b10000000100010000 s
b1011111110110100000001000000101111111111010000 z
b101111111100101111 t
b1000000001111111111111111110100 w
b10111111110000000000000000001100 ~
b10111111110000000000000000001100 |
b10111111110000000100000000001000 [
b10111111110000000100000000001000 m
b10111111110000000100000000001000 &"
b100 -
b10111111110000000000000000001100 ]
b10111111110000000000000000001100 f
b10111111110000000000000000001100 n
b10111111110000000000000000001100 '
b10111111110000000000000000001100 /
b10111111110000000000000000001100 M
b11 W
b11 ,"
0&
0F
0Q
b10111111110000000000000000001100 H
b10111111110000000000000000001100 >"
b10 e
b10 '"
b10 3"
b100000 G"
1*
#220
0*
#230
b111111111111 x
b111111111111 !"
b111111111111 }
b10000000110000 I
b10000000110000 ="
b111111111111 \
b111111111111 g
b111111111111 o
b10000000110000 S
b10000000110000 >
b10000000110000 D"
0{
b1000000101111111111001111 y
b1 s
b1000000101111111111001111 z
b1 t
b1000000110001 w
b1000000110001 ~
b1000000110001 |
0q
b10000000110000 [
b10000000110000 m
b10000000110000 &"
b1000000110001 ]
b1000000110001 f
b1000000110001 n
b10 W
b10 ,"
1X
18
1;
1."
b10111111110000000100000000001000 ^
b11 e
b11 '"
b11 3"
b100000 G"
1*
#240
0*
#250
0N
1!
b10111111110000000000000000010000 I
b10111111110000000000000000010000 ="
b100 x
b100 !"
b100 }
b10111111110000000000000000010000 S
b100 \
b100 g
b100 o
b10111111110000000000000000010000 >
b10111111110000000000000000010000 D"
1{
b100000000111111111111111111010000 y
b10000000011111111111111111101 s
b1011111111000000000000000000110000 z
b101111111100000000000000000011 t
b1000000001111111111111111110100 w
b10111111110000000000000000001100 ~
b10111111110000000000000000001100 |
1q
b10111111110000000000000000010000 [
b10111111110000000000000000010000 m
b10111111110000000000000000010000 &"
b10111111110000000000000000001100 ]
b10111111110000000000000000001100 f
b10111111110000000000000000001100 n
b1 W
b1 ,"
0X
1&
08
0F
1Q
0;
0."
b1 e
b1 '"
b1 3"
b10000000110000 ^
b10000000110000 D
b10000000110000 ?"
b10000000110000 C
b10000000110000 @"
b10000000110000 "
b10000000110000 <
b10000000110000 A"
b100000 G"
1*
#260
0*
#270
1N
1F
b10111111110000000000000000010000 ^
b10000000110000 #
b10000000110000 ,
b10000000110000 4
b10000000110000 d
b10000000110000 c
0!
b1 1
b100000 G"
1*
#280
0*
#290
b10111111110000000100000000001100 I
b10111111110000000100000000001100 ="
b11111111111100 x
b11111111111100 !"
b11111111111100 }
b10111111110000000100000000001100 S
b11111111111100 \
b11111111111100 g
b11111111111100 o
b10111111110000000100000000001100 >
b10111111110000000100000000001100 D"
b100000000111011111110111111000000000001000000 y
b10000000100010000 s
b1011111110110100000001000000111111111111000000 z
b101111111100101111 t
b1000000001111111111111111110000 w
b10111111110000000000000000010000 ~
b10111111110000000000000000010000 |
b10111111110000000100000000001100 [
b10111111110000000100000000001100 m
b10111111110000000100000000001100 &"
b101 -
b10111111110000000000000000010000 ]
b10111111110000000000000000010000 f
b10111111110000000000000000010000 n
b10111111110000000000000000010000 '
b10111111110000000000000000010000 /
b10111111110000000000000000010000 M
b11 W
b11 ,"
0&
0F
0Q
b10111111110000000000000000010000 H
b10111111110000000000000000010000 >"
b10 e
b10 '"
b10 3"
b100000 G"
1*
#300
0*
#310
b111111111111 x
b111111111111 !"
b111111111111 }
b11000000101111 I
b11000000101111 ="
b111111111111 \
b111111111111 g
b111111111111 o
b11000000101111 S
b11000000101111 >
b11000000101111 D"
0{
b10000000101101111111010000 y
b10 s
b10000000101101111111010000 z
b10 t
b10000000110000 w
b10000000110000 ~
b10000000110000 |
0q
b11000000101111 [
b11000000101111 m
b11000000101111 &"
b10000000110000 ]
b10000000110000 f
b10000000110000 n
b10 W
b10 ,"
1X
18
1;
1."
b10111111110000000100000000001100 ^
b11 e
b11 '"
b11 3"
b100000 G"
1*
#320
0*
#330
0N
1!
b10111111110000000000000000010100 I
b10111111110000000000000000010100 ="
b100 x
b100 !"
b100 }
b10111111110000000000000000010100 S
b100 \
b100 g
b100 o
b10111111110000000000000000010100 >
b10111111110000000000000000010100 D"
1{
b100000000111111111111111111000000 y
b10000000011111111111111111100 s
b1011111111000000000000000001000000 z
b101111111100000000000000000100 t
b1000000001111111111111111110000 w
b10111111110000000000000000010000 ~
b10111111110000000000000000010000 |
1q
b10111111110000000000000000010100 [
b10111111110000000000000000010100 m
b10111111110000000000000000010100 &"
b10111111110000000000000000010000 ]
b10111111110000000000000000010000 f
b10111111110000000000000000010000 n
b1 W
b1 ,"
0X
1&
08
0F
1Q
0;
0."
b1 e
b1 '"
b1 3"
b11000000101111 ^
b11000000101111 D
b11000000101111 ?"
b11000000101111 C
b11000000101111 @"
b11000000101111 "
b11000000101111 <
b11000000101111 A"
b100000 G"
1*
#340
0*
#350
1N
1F
b10111111110000000000000000010100 ^
b11000000101111 #
b11000000101111 ,
b11000000101111 4
b11000000101111 d
b11000000101111 c
0!
b1 1
b100000 G"
1*
#360
0*
#370
b10111111110000000100000000010000 I
b10111111110000000100000000010000 ="
b11111111111100 x
b11111111111100 !"
b11111111111100 }
b10111111110000000100000000010000 S
b11111111111100 \
b11111111111100 g
b11111111111100 o
b10111111110000000100000000010000 >
b10111111110000000100000000010000 D"
b100000000111011111110111110110000000001010000 y
b10000000100010000 s
b1011111110110100000001000001001111111110110000 z
b101111111100101111 t
b1000000001111111111111111101100 w
b10111111110000000000000000010100 ~
b10111111110000000000000000010100 |
b10111111110000000100000000010000 [
b10111111110000000100000000010000 m
b10111111110000000100000000010000 &"
b110 -
b10111111110000000000000000010100 ]
b10111111110000000000000000010100 f
b10111111110000000000000000010100 n
b10111111110000000000000000010100 '
b10111111110000000000000000010100 /
b10111111110000000000000000010100 M
b11 W
b11 ,"
0&
0F
0Q
b10111111110000000000000000010100 H
b10111111110000000000000000010100 >"
b10 e
b10 '"
b10 3"
b100000 G"
1*
#380
0*
#390
b111111111111 x
b111111111111 !"
b111111111111 }
b100000000101110 I
b100000000101110 ="
b111111111111 \
b111111111111 g
b111111111111 o
b100000000101110 S
b100000000101110 >
b100000000101110 D"
0{
b11000000101011111111010001 y
b11 s
b11000000101011111111010001 z
b11 t
b11000000101111 w
b11000000101111 ~
b11000000101111 |
0q
b100000000101110 [
b100000000101110 m
b100000000101110 &"
b11000000101111 ]
b11000000101111 f
b11000000101111 n
b10 W
b10 ,"
1X
18
1;
1."
b10111111110000000100000000010000 ^
b11 e
b11 '"
b11 3"
b100000 G"
1*
#400
0*
#410
0N
1!
b10111111110000000000000000011000 I
b10111111110000000000000000011000 ="
b100 x
b100 !"
b100 }
b10111111110000000000000000011000 S
b100 \
b100 g
b100 o
b10111111110000000000000000011000 >
b10111111110000000000000000011000 D"
1{
b100000000111111111111111110110000 y
b10000000011111111111111111011 s
b1011111111000000000000000001010000 z
b101111111100000000000000000101 t
b1000000001111111111111111101100 w
b10111111110000000000000000010100 ~
b10111111110000000000000000010100 |
1q
b10111111110000000000000000011000 [
b10111111110000000000000000011000 m
b10111111110000000000000000011000 &"
b10111111110000000000000000010100 ]
b10111111110000000000000000010100 f
b10111111110000000000000000010100 n
b1 W
b1 ,"
0X
1&
08
0F
1Q
0;
0."
b1 e
b1 '"
b1 3"
b100000000101110 ^
b100000000101110 D
b100000000101110 ?"
b100000000101110 C
b100000000101110 @"
b100000000101110 "
b100000000101110 <
b100000000101110 A"
b100000 G"
1*
#420
0*
#430
1N
1F
b10111111110000000000000000011000 ^
b100000000101110 #
b100000000101110 ,
b100000000101110 4
b100000000101110 d
b100000000101110 c
0!
b1000 %
b1000 0
b1000 3
b1000 2"
b1 1
b100000 G"
1*
#440
0*
#450
b10111111110000000000000000111000 I
b10111111110000000000000000111000 ="
b100000 x
b100000 !"
b100000 }
b0 ?
b0 E"
b10111111110000000000000000111000 S
b100000 \
b100000 g
b100000 o
b10111111110000000000000000111000 >
b10111111110000000000000000111000 D"
b100000000111111111111111110100000000 y
b10000000011111111111111111 s
b1011111111000000000000000001100000000 z
b101111111100000000000000000 t
b1000000001111111111111111101000 w
b10111111110000000000000000011000 ~
b10111111110000000000000000011000 |
b111 -
b1000 9
b10111111110000000000000000111000 [
b10111111110000000000000000111000 m
b10111111110000000000000000111000 &"
b10111111110000000000000000011000 ]
b10111111110000000000000000011000 f
b10111111110000000000000000011000 n
b10111111110000000000000000011000 '
b10111111110000000000000000011000 /
b10111111110000000000000000011000 M
b0 J
b0 )"
b0 ;"
b0 D
b0 ?"
b0 A
b0 5"
b0 B"
b0 C
b0 @"
b0 @
b0 ("
b0 4"
b0 C"
b0 B
b0 :"
b1000 5
b1000 T
b1000 8"
b1000 P
b1000 7"
b1000 U
b1000 ""
b1000 *"
b1000 9"
b0 :
b0 h
b0 6"
b11 W
b11 ,"
0&
0F
0Q
b10111111110000000000000000011000 H
b10111111110000000000000000011000 >"
b1000 <"
b10 e
b10 '"
b10 3"
b1000 b
b100000 G"
1*
#460
0*
#470
b10111111110000000000000000011000 >
b10111111110000000000000000011000 D"
b0 y
bx s
b0 z
bx t
b0 x
b0 !"
b0 }
b10111111110000000000000000011000 [
b10111111110000000000000000011000 m
b10111111110000000000000000011000 &"
b0 \
b0 g
b0 o
b0 I
b0 ="
b0 S
b0 W
b0 ,"
18
1O
b11 G
b11 0"
1."
b10111111110000000000000000111000 ^
b0 #
b0 ,
b0 4
b0 d
b0 c
b11 e
b11 '"
b11 3"
b100000 G"
1*
#480
0*
#490
0N
1!
b10111111110000000000000000011100 >
b10111111110000000000000000011100 D"
b100000000111111111111111110100000 y
b10000000011111111111111111010 s
b1011111111000000000000000001100000 z
b101111111100000000000000000110 t
b100 x
b100 !"
b100 }
b10111111110000000000000000011100 [
b10111111110000000000000000011100 m
b10111111110000000000000000011100 &"
b100 \
b100 g
b100 o
b10111111110000000000000000011100 S
b1 W
b1 ,"
1&
08
0O
b0 G
b0 0"
0F
1Q
0."
b1 e
b1 '"
b1 3"
b10111111110000000000000000011000 ^
b0 a
1`
b100000 G"
1*
#500
0*
#510
1N
1F
b10111111110000000000000000011100 ^
0!
b100100010000100000111111111111 %
b100100010000100000111111111111 0
b100100010000100000111111111111 3
b100100010000100000111111111111 2"
b1 1
b100000 G"
1*
#520
0*
#530
b11111111111100 x
b11111111111100 !"
b11111111111100 }
b10 ?
b10 E"
b11111111111100 S
b11111111111100 \
b11111111111100 g
b11111111111100 o
b11111111111100 >
b11111111111100 D"
0{
b0 y
b0 s
b0 z
b0 t
b0 w
b0 ~
b0 |
0q
b1 -
b111111111111 9
b11111111111100 [
b11111111111100 m
b11111111111100 &"
b0 ]
b0 f
b0 n
b0 '
b0 /
b0 M
b1001 J
b1001 )"
b1001 ;"
b100000000101110 D
b100000000101110 ?"
b10 A
b10 5"
b10 B"
b100000000101110 C
b100000000101110 @"
b10 @
b10 ("
b10 4"
b10 C"
b1 B
b1 :"
b111111111111 5
b111111111111 T
b111111111111 8"
b10000100000111111111111 P
b10000100000111111111111 7"
b111111 U
b111111 ""
b111111 *"
b111111 9"
b11111 :
b11111 h
b11111 6"
b11 W
b11 ,"
0&
0F
0Q
b11111111111100 I
b11111111111100 ="
b0 H
b0 >"
b100100010000100000111111111111 <"
b10 e
b10 '"
b10 3"
0`
b100100010000100000111111111111 b
b100000 G"
1*
#540
0*
#550
b111111111111 x
b111111111111 !"
b111111111111 }
b101000000101101 I
b101000000101101 ="
b111111111111 \
b111111111111 g
b111111111111 o
b101000000101101 S
b101000000101101 >
b101000000101101 D"
b100000000101001111111010010 y
b100 s
b100000000101001111111010010 z
b100 t
b100000000101110 w
b100000000101110 ~
b100000000101110 |
b101000000101101 [
b101000000101101 m
b101000000101101 &"
b100000000101110 ]
b100000000101110 f
b100000000101110 n
b10 W
b10 ,"
1X
18
1;
1."
b11111111111100 ^
b100000000101110 #
b100000000101110 ,
b100000000101110 4
b100000000101110 d
b100000000101110 c
b11 e
b11 '"
b11 3"
b100000 G"
1*
#560
0*
#570
b100000000101110 I
b100000000101110 ="
b100000000101110 x
b100000000101110 !"
b100000000101110 }
b100000000101110 S
b100000000101110 \
b100000000101110 g
b100000000101110 o
b100000000101110 >
b100000000101110 D"
b0 y
b0 s
b0 z
b0 t
b0 w
b0 ~
b0 |
b100000000101110 [
b100000000101110 m
b100000000101110 &"
b0 ]
b0 f
b0 n
0Y
b0 W
b0 ,"
0X
08
0N
0;
0."
0)
b0 e
b0 '"
b0 3"
b101000000101101 ^
b101000000101101 D
b101000000101101 ?"
b101000000101101 C
b101000000101101 @"
b101000000101101 "
b101000000101101 <
b101000000101101 A"
b100000 G"
1*
#580
0*
#590
b101000000101101 I
b101000000101101 ="
b101000000101101 S
b101000000101101 >
b101000000101101 D"
b101000000101101 x
b101000000101101 !"
b101000000101101 }
b101000000101101 [
b101000000101101 m
b101000000101101 &"
b101000000101101 \
b101000000101101 g
b101000000101101 o
b101000000101101 #
b101000000101101 ,
b101000000101101 4
b101000000101101 d
b101000000101101 c
b100000 G"
1*
#600
0*
#610
b100000 G"
1*
#620
0*
#630
b100000 G"
1*
#640
0*
#650
b100000 G"
1*
#660
0*
#670
b100000 G"
1*
#680
0*
#690
b100000 G"
1*
#700
0*
#710
b100000 G"
1*
#720
0*
#730
b100000 G"
1*
#740
0*
#750
b100000 G"
1*
#760
0*
#770
b100000 G"
1*
#780
0*
#790
b100000 G"
1*
#800
0*
#810
b100000 G"
1*
#820
0*
#830
b100000 G"
1*
#840
0*
#850
b100000 G"
1*
#860
0*
#870
b100000 G"
1*
#880
0*
#890
b100000 G"
1*
#900
0*
#910
b100000 G"
1*
#920
0*
#930
b100000 G"
1*
#940
0*
#950
b100000 G"
1*
#960
0*
#970
b100000 G"
1*
#980
0*
#990
b100000 G"
1*
#1000
0*
#1010
b100000 G"
1*
#1020
0*
#1030
b100000 G"
1*
#1040
0*
#1050
b100000 G"
1*
#1060
0*
#1070
b100000 G"
1*
